11111111111111111111111111111111111111111
10100010000000100000001000000010000010001
10111010101110101011101011111010111010101
10000010100010101000101010001010001010101
10111110111010101110101010101011101010101
10100010101010001000100010101000101000101
10101010101011111011111110101110101011111
10001000100010001000000010100000101000001
11111111111110111111111011101111101111101
10000010100010000000001000100010001000001
11111010101011101111101110101011111110101
10000010001000001010001010101000000010101
10101111111111111010111010101111111010101
10101000100000001010000000100000100010101
10101010111110101011101111111111101110101
10101010000000101000100010000000101000101
10101111111111101011111010111110101011101
10100010000000100000100010100000101010001
10111010111111111110101111101111101010111
10100010100000100000001000000000101010001
10111110101110101110111011101111101011101
10001000101000101000101000100010001010001
10101110101111101011101110111010111010111
10100010100000001010001000001000100010001
10111010111111111010111111101111101111101
10001000001000000010001000001000100010001
11101011101011111111101011111010111010111
10001000100010000000101000000010001010001
10111111111111101110101011101111101011101
10000000000000101000100010101000100010001
11111111111110101110111110101011111111101
10000000000000100010001000101010001000101
10111111111111111011101110101010101010101
10100000001000001000100000100000101010101
10101110101011101110111111111111101010111
10001000100010100010000000000010001010001
11111011111110111011101111111010111011101
10001010001000101010001000100010000010001
10101011101011101010111110101111111110111
10100000001000000010000000100000000000001
11111111111111111111111111111111111111111